Tabla;#Columna;Nombre Columna;Tipo;Observación
tb1RegistroAdmision;2;numero_atencion;int;
tb1RegistroAdmision;3;afiliado;int;funcionIdPaciente
tb1RegistroAdmision;7;responsable;nvarchar;
tb1RegistroAdmision;8;observacion;nvarchar;
tb1RegistroAdmision;10;des_campo1;nvarchar;
tb1RegistroAdmision;11;des_campo2;int;
tb1RegistroAdmision;12;des_campo3;nvarchar;
tb1RegistroAdmision;17;pcname;nvarchar;
tb1RegistroAdmision;20;fuente_informacion;nvarchar;
tb1RegistroAdmision;21;persona_entrega;nvarchar;
tb1RegistroAdmision;22;derivacion;bit;
tb1RegistroAdmision;23;hospital;int;
tb1RegistroAdmision;24;cedula_persona_entrega;nvarchar;
tb1RegistroAdmision;25;tipo_acompañante;varchar;
tb2InicioAtencionMotivo;8;trauma;int;
tb2InicioAtencionMotivo;9;causa_clinica;int;
tb2InicioAtencionMotivo;10;causa_obstetrica;int;
tb2InicioAtencionMotivo;11;causa_quirurjica;int;
tb2InicioAtencionMotivo;12;notificacion_policia;int;
tb2InicioAtencionMotivo;13;otro_motivo;int;
tb2InicioAtencionMotivo;14;observacion;nvarchar;
tb2InicioAtencionMotivo;15;tipo_sangre;int;
tb2InicioAtencionMotivo;16;des_campo1;nvarchar;
tb2InicioAtencionMotivo;17;des_campo2;nvarchar;
tb2InicioAtencionMotivo;18;des_campo3;decimal;
tb2InicioAtencionMotivo;23;pcname;nvarchar;
tb3AccidenteViolenciaIntoxicacionEnvenenamientoQuemadura;6;smalldatetime;smalldatetime;
tb3AccidenteViolenciaIntoxicacionEnvenenamientoQuemadura;7;fecha_evento;smalldatetime;
tb3AccidenteViolenciaIntoxicacionEnvenenamientoQuemadura;8;hora_evento;nvarchar;
tb3AccidenteViolenciaIntoxicacionEnvenenamientoQuemadura;9;lugar_evento;nvarchar;
tb3AccidenteViolenciaIntoxicacionEnvenenamientoQuemadura;10;direccion_evento;nvarchar;
tb3AccidenteViolenciaIntoxicacionEnvenenamientoQuemadura;11;custodia_policial;int;
tb3AccidenteViolenciaIntoxicacionEnvenenamientoQuemadura;12;c1;int;
tb3AccidenteViolenciaIntoxicacionEnvenenamientoQuemadura;13;c2;int;
tb3AccidenteViolenciaIntoxicacionEnvenenamientoQuemadura;14;c3;int;
tb3AccidenteViolenciaIntoxicacionEnvenenamientoQuemadura;15;c4;int;
tb3AccidenteViolenciaIntoxicacionEnvenenamientoQuemadura;16;c5;int;
tb3AccidenteViolenciaIntoxicacionEnvenenamientoQuemadura;17;c6;int;
tb3AccidenteViolenciaIntoxicacionEnvenenamientoQuemadura;18;c7;int;
tb3AccidenteViolenciaIntoxicacionEnvenenamientoQuemadura;19;c8;int;
tb3AccidenteViolenciaIntoxicacionEnvenenamientoQuemadura;20;c9;int;
tb3AccidenteViolenciaIntoxicacionEnvenenamientoQuemadura;21;c10;int;
tb3AccidenteViolenciaIntoxicacionEnvenenamientoQuemadura;22;c11;int;
tb3AccidenteViolenciaIntoxicacionEnvenenamientoQuemadura;23;c12;int;
tb3AccidenteViolenciaIntoxicacionEnvenenamientoQuemadura;24;c13;int;
tb3AccidenteViolenciaIntoxicacionEnvenenamientoQuemadura;25;c14;int;
tb3AccidenteViolenciaIntoxicacionEnvenenamientoQuemadura;26;c15;int;
tb3AccidenteViolenciaIntoxicacionEnvenenamientoQuemadura;27;c16;int;
tb3AccidenteViolenciaIntoxicacionEnvenenamientoQuemadura;28;c17;int;
tb3AccidenteViolenciaIntoxicacionEnvenenamientoQuemadura;29;c18;int;
tb3AccidenteViolenciaIntoxicacionEnvenenamientoQuemadura;30;c19;int;
tb3AccidenteViolenciaIntoxicacionEnvenenamientoQuemadura;31;c20;int;
tb3AccidenteViolenciaIntoxicacionEnvenenamientoQuemadura;32;c21;int;
tb3AccidenteViolenciaIntoxicacionEnvenenamientoQuemadura;33;c22;int;
tb3AccidenteViolenciaIntoxicacionEnvenenamientoQuemadura;34;c23;int;
tb3AccidenteViolenciaIntoxicacionEnvenenamientoQuemadura;35;c24;int;
tb3AccidenteViolenciaIntoxicacionEnvenenamientoQuemadura;36;observacion;nvarchar;
tb3AccidenteViolenciaIntoxicacionEnvenenamientoQuemadura;37;des_campo1;nvarchar;
tb3AccidenteViolenciaIntoxicacionEnvenenamientoQuemadura;38;des_campo2;nvarchar;
tb3AccidenteViolenciaIntoxicacionEnvenenamientoQuemadura;39;des_campo3;decimal;
tb3AccidenteViolenciaIntoxicacionEnvenenamientoQuemadura;44;pcname;nvarchar;
tb4EmergenciaAntecedentesFamiliaresPersonales;7;c1;int;
tb4EmergenciaAntecedentesFamiliaresPersonales;8;c2;int;
tb4EmergenciaAntecedentesFamiliaresPersonales;9;c3;int;
tb4EmergenciaAntecedentesFamiliaresPersonales;10;c4;int;
tb4EmergenciaAntecedentesFamiliaresPersonales;11;c5;int;
tb4EmergenciaAntecedentesFamiliaresPersonales;12;c6;int;
tb4EmergenciaAntecedentesFamiliaresPersonales;13;c7;int;
tb4EmergenciaAntecedentesFamiliaresPersonales;14;c8;int;
tb4EmergenciaAntecedentesFamiliaresPersonales;15;alergico;nvarchar;
tb4EmergenciaAntecedentesFamiliaresPersonales;16;clinico;nvarchar;
tb4EmergenciaAntecedentesFamiliaresPersonales;17;ginecologico;nvarchar;
tb4EmergenciaAntecedentesFamiliaresPersonales;18;traumatologico;nvarchar;
tb4EmergenciaAntecedentesFamiliaresPersonales;19;quirurgico;nvarchar;
tb4EmergenciaAntecedentesFamiliaresPersonales;20;farmacologico;nvarchar;
tb4EmergenciaAntecedentesFamiliaresPersonales;21;psiquiatrico;nvarchar;
tb4EmergenciaAntecedentesFamiliaresPersonales;22;otro;nvarchar;
tb4EmergenciaAntecedentesFamiliaresPersonales;23;des_campo1;nvarchar;
tb4EmergenciaAntecedentesFamiliaresPersonales;24;des_campo2;nvarchar;
tb4EmergenciaAntecedentesFamiliaresPersonales;25;des_campo3;nchar;
tb4EmergenciaAntecedentesFamiliaresPersonales;30;pcname;nvarchar;
tb5EmergenciaEnfermedadActual;7;c1;int;
tb5EmergenciaEnfermedadActual;8;c2;int;
tb5EmergenciaEnfermedadActual;9;c3;int;
tb5EmergenciaEnfermedadActual;10;c4;int;
tb5EmergenciaEnfermedadActual;11;observacion;nvarchar;
tb5EmergenciaEnfermedadActual;12;des_campo1;nvarchar;
tb5EmergenciaEnfermedadActual;13;des_campo2;nvarchar;
tb5EmergenciaEnfermedadActual;14;des_campo3;decimal;
tb5EmergenciaEnfermedadActual;19;pcname;nvarchar;
tb6EmergenciaSignosVitales;6;c1;nvarchar;
tb6EmergenciaSignosVitales;7;c2;nvarchar;
tb6EmergenciaSignosVitales;8;c3;nvarchar;
tb6EmergenciaSignosVitales;9;c3;nvarchar;
tb6EmergenciaSignosVitales;10;c4;nvarchar;
tb6EmergenciaSignosVitales;11;c5;nvarchar;
tb6EmergenciaSignosVitales;12;c6;nvarchar;
tb6EmergenciaSignosVitales;13;c7;nvarchar;
tb6EmergenciaSignosVitales;14;c8;nvarchar;
tb6EmergenciaSignosVitales;15;des_campo1;nvarchar;
tb6EmergenciaSignosVitales;16;des_campo2;nvarchar;
tb6EmergenciaSignosVitales;17;des_campo3;decimal;
tb7EmergenciaSignosVitales;6;c1;int;
tb7EmergenciaSignosVitales;7;c2;int;
tb7EmergenciaSignosVitales;8;c3;int;
tb7EmergenciaSignosVitales;9;c4;int;
tb7EmergenciaSignosVitales;10;c5;int;
tb7EmergenciaSignosVitales;11;c6;int;
tb7EmergenciaSignosVitales;12;c7;int;
tb7EmergenciaSignosVitales;13;c8;int;
tb7EmergenciaSignosVitales;14;d1;nvarchar;
tb7EmergenciaSignosVitales;15;d1;nvarchar;
tb7EmergenciaSignosVitales;16;d1;nvarchar;
tb7EmergenciaSignosVitales;17;d1;nvarchar;
tb7EmergenciaSignosVitales;18;d1;nvarchar;
tb7EmergenciaSignosVitales;19;d1;nvarchar;
tb7EmergenciaSignosVitales;20;d1;nvarchar;
tb7EmergenciaSignosVitales;21;d1;nvarchar;
tb7EmergenciaSignosVitales;22;des_campo1;nvarchar;
tb7EmergenciaSignosVitales;23;des_campo2;nvarchar;
tb7EmergenciaSignosVitales;24;des_campo3;decimal;
tb8EmergenciaLocalizacionLesiones;6;c1;int;
tb8EmergenciaLocalizacionLesiones;7;c2;int;
tb8EmergenciaLocalizacionLesiones;8;c3;int;
tb8EmergenciaLocalizacionLesiones;9;c4;int;
tb8EmergenciaLocalizacionLesiones;10;c5;int;
tb8EmergenciaLocalizacionLesiones;11;c6;int;
tb8EmergenciaLocalizacionLesiones;12;c7;int;
tb8EmergenciaLocalizacionLesiones;13;c8;int;
tb8EmergenciaLocalizacionLesiones;14;c9;int;
tb8EmergenciaLocalizacionLesiones;15;c10;int;
tb8EmergenciaLocalizacionLesiones;16;c11;int;
tb8EmergenciaLocalizacionLesiones;17;c12;int;
tb8EmergenciaLocalizacionLesiones;18;c13;int;
tb8EmergenciaLocalizacionLesiones;19;c14;int;
tb8EmergenciaLocalizacionLesiones;20;c15;int;
tb8EmergenciaLocalizacionLesiones;21;c16;int;
tb8EmergenciaLocalizacionLesiones;22;c17;int;
tb8EmergenciaLocalizacionLesiones;23;c18;int;
tb8EmergenciaLocalizacionLesiones;24;c19;int;
tb8EmergenciaLocalizacionLesiones;25;c20;int;
tb8EmergenciaLocalizacionLesiones;26;c21;int;
tb8EmergenciaLocalizacionLesiones;27;c22;int;
tb8EmergenciaLocalizacionLesiones;28;c23;int;
tb8EmergenciaLocalizacionLesiones;29;c24;int;
tb8EmergenciaLocalizacionLesiones;30;c25;int;
tb8EmergenciaLocalizacionLesiones;31;c26;int;
tb8EmergenciaLocalizacionLesiones;32;c27;int;
tb8EmergenciaLocalizacionLesiones;33;c28;int;
tb8EmergenciaLocalizacionLesiones;34;c29;int;
tb8EmergenciaLocalizacionLesiones;35;c30;int;
tb8EmergenciaLocalizacionLesiones;36;d1;int;
tb8EmergenciaLocalizacionLesiones;37;d2;int;
tb8EmergenciaLocalizacionLesiones;38;d3;int;
tb8EmergenciaLocalizacionLesiones;39;d4;int;
tb8EmergenciaLocalizacionLesiones;40;d5;int;
tb8EmergenciaLocalizacionLesiones;41;d6;int;
tb8EmergenciaLocalizacionLesiones;42;d7;int;
tb8EmergenciaLocalizacionLesiones;43;d8;int;
tb8EmergenciaLocalizacionLesiones;44;d9;int;
tb8EmergenciaLocalizacionLesiones;45;d10;int;
tb8EmergenciaLocalizacionLesiones;46;d11;int;
tb8EmergenciaLocalizacionLesiones;47;d12;int;
tb8EmergenciaLocalizacionLesiones;48;d13;int;
tb8EmergenciaLocalizacionLesiones;49;d14;int;
tb8EmergenciaLocalizacionLesiones;50;d15;int;
tb8EmergenciaLocalizacionLesiones;51;d16;int;
tb8EmergenciaLocalizacionLesiones;52;d17;int;
tb8EmergenciaLocalizacionLesiones;53;d18;int;
tb8EmergenciaLocalizacionLesiones;54;d19;int;
tb8EmergenciaLocalizacionLesiones;55;d20;int;
tb8EmergenciaLocalizacionLesiones;56;d21;int;
tb8EmergenciaLocalizacionLesiones;57;d22;int;
tb8EmergenciaLocalizacionLesiones;58;d23;int;
tb8EmergenciaLocalizacionLesiones;59;d24;int;
tb8EmergenciaLocalizacionLesiones;60;d25;int;
tb8EmergenciaLocalizacionLesiones;61;d26;int;
tb8EmergenciaLocalizacionLesiones;62;d27;int;
tb8EmergenciaLocalizacionLesiones;63;d28;int;
tb8EmergenciaLocalizacionLesiones;64;d29;int;
tb8EmergenciaLocalizacionLesiones;65;d30;int;
tb8EmergenciaLocalizacionLesiones;66;l1;int;
tb8EmergenciaLocalizacionLesiones;67;l2;int;
tb8EmergenciaLocalizacionLesiones;68;l3;int;
tb8EmergenciaLocalizacionLesiones;69;l4;int;
tb8EmergenciaLocalizacionLesiones;70;l5;int;
tb8EmergenciaLocalizacionLesiones;71;l6;int;
tb8EmergenciaLocalizacionLesiones;72;l7;int;
tb8EmergenciaLocalizacionLesiones;73;l8;int;
tb8EmergenciaLocalizacionLesiones;74;l9;int;
tb8EmergenciaLocalizacionLesiones;75;l10;int;
tb8EmergenciaLocalizacionLesiones;76;l11;int;
tb8EmergenciaLocalizacionLesiones;77;l12;int;
tb8EmergenciaLocalizacionLesiones;78;l13;int;
tb8EmergenciaLocalizacionLesiones;79;l14;int;
tb8EmergenciaLocalizacionLesiones;80;l15;int;
tb8EmergenciaLocalizacionLesiones;81;txt15;nvarchar;
tb8EmergenciaLocalizacionLesiones;82;des_campo1;nvarchar;
tb8EmergenciaLocalizacionLesiones;83;des_campo2;nvarchar;
tb8EmergenciaLocalizacionLesiones;84;des_campo3;deciamal;
tb9EmergenciaObstetrica;6;gestas;int;
tb9EmergenciaObstetrica;7;partos;int;
tb9EmergenciaObstetrica;8;abortos;int;
tb9EmergenciaObstetrica;9;cesareas;int;
tb9EmergenciaObstetrica;10;fecha_ultima_menstruacion;smalldatetime;
tb9EmergenciaObstetrica;11;semanas_gestacion;int;
tb9EmergenciaObstetrica;12;movimiento_fetal;int;
tb9EmergenciaObstetrica;13;frecuencia_fetal;nvarchar;
tb9EmergenciaObstetrica;14;menbranas_rotas;int;
tb9EmergenciaObstetrica;15;des_menbranas_rotas;nvarchar;
tb9EmergenciaObstetrica;16;altura_uterina;nvarchar;
tb9EmergenciaObstetrica;17;presentacion;nvarchar;
tb9EmergenciaObstetrica;18;dilatacion;nvarchar;
tb9EmergenciaObstetrica;19;borramiento;nvarchar;
tb9EmergenciaObstetrica;20;plano;nvarchar;
tb9EmergenciaObstetrica;21;pelvis_util;nvarchar;
tb9EmergenciaObstetrica;22;sangrado_vaginal;nvarchar;
tb9EmergenciaObstetrica;23;contracciones;nvarchar;
tb9EmergenciaObstetrica;24;observacion;nvarchar;
tb9EmergenciaObstetrica;25;des_campo1;nvarchar;
tb9EmergenciaObstetrica;26;des_campo2;nvarchar;
tb9EmergenciaObstetrica;27;des_campo3;decimal;
tb10SolicitudExamen;6;biometria;int;
tb10SolicitudExamen;7;uroanalisis;int;
tb10SolicitudExamen;8;quimica_sanguinea;int;
tb10SolicitudExamen;9;electrolitos;int;
tb10SolicitudExamen;10;gasometria;int;
tb10SolicitudExamen;11;electro_cardiograma;int;
tb10SolicitudExamen;12;endoscopia;int;
tb10SolicitudExamen;13;rx_torax;int;
tb10SolicitudExamen;14;rx_abodmen;int;
tb10SolicitudExamen;15;rx_osea;int;
tb10SolicitudExamen;16;tomografia;int;
tb10SolicitudExamen;17;resonancia;int;
tb10SolicitudExamen;18;ecografia_pelvica;int;
tb10SolicitudExamen;19;ecografia_abdomen;int;
tb10SolicitudExamen;20;interconsulta;int;
tb10SolicitudExamen;21;otros;int;
tb10SolicitudExamen;22;observacion;nvarchar;
tb10SolicitudExamen;23;des_campo1;nvarchar;
tb10SolicitudExamen;24;des_campo2;nvarchar;
tb10SolicitudExamen;25;des_campo3;decimal;
tb11DiagnosticoIngreso;2;codigo_ingreso;int;
tb11DiagnosticoIngreso;4;afiliado;int;funcionIdPaciente
tb11DiagnosticoIngreso;7;ciec_1;nvarchar;
tb11DiagnosticoIngreso;8;des_cie_1;nvarchar;
tb11DiagnosticoIngreso;9;status_1;int;
tb11DiagnosticoIngreso;10;ciec_2;nvarchar;
tb11DiagnosticoIngreso;11;des_cie_2;nvarchar;
tb11DiagnosticoIngreso;12;status_2;int;
tb11DiagnosticoIngreso;13;ciec_3;nvarchar;
tb11DiagnosticoIngreso;14;des_cie_3;nvarchar;
tb11DiagnosticoIngreso;15;status_3;int;
tb11DiagnosticoIngreso;16;observacion;nvarchar;
tb11DiagnosticoIngreso;17;des_campo1;nvarchar;
tb11DiagnosticoIngreso;18;des_campo2;nvarchar;
tb11DiagnosticoIngreso;19;des_campo3;int;
tb11DiagnosticoIngreso;24;pcname;nvarchar;
tb12DiagnosticoAlta;2;codigo_ingreso;int;
tb12DiagnosticoAlta;4;afiliado;int;funcionIdPaciente
tb12DiagnosticoAlta;7;ciec_1;nvarchar;
tb12DiagnosticoAlta;8;des_cie_1;nvarchar;
tb12DiagnosticoAlta;9;status_1;int;
tb12DiagnosticoAlta;10;ciec_2;nvarchar;
tb12DiagnosticoAlta;11;des_cie_2;nvarchar;
tb12DiagnosticoAlta;12;status_2;int;
tb12DiagnosticoAlta;13;ciec_3;nvarchar;
tb12DiagnosticoAlta;14;des_cie_3;nvarchar;
tb12DiagnosticoAlta;15;status_3;int;
tb12DiagnosticoAlta;16;observacion;nvarchar;
tb12DiagnosticoAlta;17;des_campo1;nvarchar;
tb12DiagnosticoAlta;18;des_campo2;nvarchar;
tb12DiagnosticoAlta;19;des_campo3;int;
tb12DiagnosticoAlta;24;pcname;nvarchar;
tb13PlanTratamiento;2;codigo_ingreso;int;
tb13PlanTratamiento;4;numero;int;
tb13PlanTratamiento;5;afiliado;int;funcionIdPaciente
tb13PlanTratamiento;8;indicaciones;nvarchar;
tb13PlanTratamiento;9;cod_medicina;nvarchar;
tb13PlanTratamiento;10;des_medicina;nvarchar;
tb13PlanTratamiento;11;cantidad;int;
tb13PlanTratamiento;12;precio;int;
tb13PlanTratamiento;13;total;int;
tb13PlanTratamiento;14;aplica_iva;int;
tb13PlanTratamiento;15;posologia;nvarchar;
tb13PlanTratamiento;21;des_campo1;nvarchar;
tb13PlanTratamiento;22;des_campo2;nvarchar;
tb13PlanTratamiento;23;des_campo3;int;
tb13PlanTratamiento;28;pcname;nvarchar;
tb14Alta;2;codigo_ingreso;int;
tb14Alta;4;afiliado;int;funcionIdPaciente
tb14Alta;7;domicilio;int;
tb14Alta;8;consulta_externa;int;
tb14Alta;9;observacion;int;
tb14Alta;10;internacion;int;
tb14Alta;11;referencia;int;
tb14Alta;12;egreso_vivo;int;
tb14Alta;13;en_condicion_inestable;int;
tb14Alta;14;dias_incapacidad;int;
tb14Alta;15;servicio_referencia;nvarchar;
tb14Alta;16;establecimiento;nvarchar;
tb14Alta;17;muerto_emergencia;int;
tb14Alta;18;causa;nvarchar;
tb14Alta;21;des_campo1;nvarchar;
tb14Alta;22;des_campo2;nvarchar;
tb14Alta;23;des_campo3;int;
tb14Alta;28;pcname;nvarchar;
tb15TriajeMedico;2;codigo_ingreso;int;
tb15TriajeMedico;4;afiliado;int;funcionIdPaciente
tb15TriajeMedico;8;prioridad;int;
tb15TriajeMedico;9;triaje;int;
tb15TriajeMedico;10;observacion;nvarchar;
tb15TriajeMedico;11;des_campo1;nvarchar;
tb15TriajeMedico;12;des_campo2;nvarchar;
tb15TriajeMedico;13;des_campo3;int;
tb15TriajeMedico;18;pcname;nvarchar;
tb16EnvioRecepcion;13;registro;int;
tb16EnvioRecepcion;17;str;nvarchar;
tb16EnvioRecepcion;21;des_campo1;nvarchar;
tb16EnvioRecepcion;22;des_campo2;nvarchar;
tb16EnvioRecepcion;23;des_campo3;int;
tb16EnvioRecepcion;27;usuario_ingreso;int;
tb16EnvioRecepcion;28;fecha_ingreso;date;
tb16EnvioRecepcion;31;usuario_modificacion;int;
tb16EnvioRecepcion;32;fecha_modificacion;date;
tb16EnvioRecepcion;35;pcname;nvarchar;
tb16EnvioRecepcion;36;status;int;
tb17EnvioRecepcionBorrador;13;registro;int;
tb17EnvioRecepcionBorrador;17;str;nvarchar;
tb17EnvioRecepcionBorrador;21;des_campo1;nvarchar;
tb17EnvioRecepcionBorrador;22;des_campo2;nvarchar;
tb17EnvioRecepcionBorrador;23;des_campo3;int;
tb17EnvioRecepcionBorrador;27;usuario_ingreso;int;
tb17EnvioRecepcionBorrador;28;fecha_ingreso;date;
tb17EnvioRecepcionBorrador;31;usuario_modificacion;int;
tb17EnvioRecepcionBorrador;32;fecha_modificacion;date;
tb17EnvioRecepcionBorrador;35;pcname;nvarchar;
tb17EnvioRecepcionBorrador;36;status;int;
tb18OrdenLaboratorio;2;codigo_ingreso;int;
tb18OrdenLaboratorio;3;paciente;int;
tb18OrdenLaboratorio;5;titular;int;
tb18OrdenLaboratorio;9;codigo_far;nvarchar;
tb18OrdenLaboratorio;10;descripcion_far;nvarchar;
tb18OrdenLaboratorio;15;linea_far;nvarchar;
tb18OrdenLaboratorio;16;orden;int;
tb18OrdenLaboratorio;21;des_campo1;nvarchar;
tb18OrdenLaboratorio;22;des_campo2;nvarchar;
tb18OrdenLaboratorio;23;des_campo3;int;
tb18OrdenLaboratorio;27;usuario_ingreso;int;
tb18OrdenLaboratorio;28;fecha_ingreso;date;
tb18OrdenLaboratorio;31;usuario_modificacion;int;
tb18OrdenLaboratorio;32;fecha_modificacion;date;
tb18OrdenLaboratorio;35;pcname;nvarchar;
tb18OrdenLaboratorio;36;status;int;
tb19PrescripcionInsumos;1;id;int;
tb19PrescripcionInsumos;2;codigo_ingreso;int;
tb19PrescripcionInsumos;3;numero;int;
tb19PrescripcionInsumos;4;paciente;int;
tb19PrescripcionInsumos;5;doctor;int;
tb19PrescripcionInsumos;9;fecha;date;
tb19PrescripcionInsumos;10;indicaciones;nvarchar;
tb19PrescripcionInsumos;13;cod_medicina;nvarchar;
tb19PrescripcionInsumos;14;des_medicina;nvarchar;
tb19PrescripcionInsumos;15;cantidad;int;
tb19PrescripcionInsumos;17;precio;double;
tb19PrescripcionInsumos;18;total;double;
tb19PrescripcionInsumos;19;aplica_iva;int;
tb19PrescripcionInsumos;20;posologia;nvarchar;
tb19PrescripcionInsumos;21;des_campo1;nvarchar;
tb19PrescripcionInsumos;22;des_campo2;nvarchar;
tb19PrescripcionInsumos;23;des_campo3;int;
tb19PrescripcionInsumos;27;usuario_ingreso;int;
tb19PrescripcionInsumos;28;fecha_ingreso;date;
tb19PrescripcionInsumos;31;usuario_modificacion;int;
tb19PrescripcionInsumos;32;fecha_modificacion;date;
tb19PrescripcionInsumos;35;pcname;nvarchar;
tb19PrescripcionInsumos;36;status;int;
tb20Indicaciones;1;id;int;
tb20Indicaciones;2;codigo_ingreso;int;
tb20Indicaciones;3;paciente;int;
tb20Indicaciones;5;afiliado;int;
tb20Indicaciones;7;fecha;date;
tb20Indicaciones;9;aseo;nvarchar;
tb20Indicaciones;10;reposo;nvarchar;
tb20Indicaciones;11;alimentacion;nvarchar;
tb20Indicaciones;15;cantidad;int;
tb20Indicaciones;21;des_campo1;nvarchar;
tb20Indicaciones;22;des_campo2;nvarchar;
tb20Indicaciones;23;des_campo3;int;
tb20Indicaciones;27;usuario_ingreso;int;
tb20Indicaciones;28;fecha_ingreso;date;
tb20Indicaciones;31;usuario_modificacion;int;
tb20Indicaciones;32;fecha_modificacion;date;
tb20Indicaciones;35;pcname;nvarchar;
tb20Indicaciones;36;status;int;