indice_nombre_MH,clase,decripcion Clase,tipo de Dato
1,TipoAnestesia,tipos de anestesia,Text
1,TipoAccidente,tipos de accidente,Text
1,TipoCama,tipos de cama,Text
1,TipoAtencion,tipos de Atencion,Text
2,TipoBeneficiario,tipos de beneficiario,Text
1,TipoCartaIESS,tipos de Cartas IESS,Text
1,TipoConsultaExterna,tipos de consulta externa,Text
1,TipoAtencion,tipos de Atencion,Text
1,TipoCultura,cultura,Text
1,TipoDerivado,tipos de derivados,Text
1,TipoDietaUCI,tipos de Dietas en UCI,Text
2,TipoDocumentoIESS,tipos de documentos IESS,Text
1,TipoEgreso,tipos de Egresos,Text
1,TipoEgresoAlta,tipos de Egreso-Alta,Text
2,TipoExamen,tipos de Examenes,Text
1,TipoHospitalizacion,tipos de hospitalizacion,Text
2,TipoIdentificacionPersona,tipos de Atencion,Text
1,TipoIngreso,tipos de ingreso,Text
1,TipoLlegadaEmergencia,tipos de llegada a Emergencia,Text
1,TipoMedico,tipos de medico,Text
1,TipoMedicoIESS,tipos de medico IESS,Text
1,TipoMedicoServicio,tipos de medico Servicio,Text
1,TipoPrestacion,tipos de Prestacion,Text
1,TipoRedPublica,tipos de red publica,Text
1,TipoSangre,tipos de sangre,Text
1,TipoPrestacion,tipos de prestacion,Text
2,TipoSeguro,tipos de seguro,Text
1,TipoServicio,tipos de servicio,Text
1,TiposProcedimientosTarifarios,tipos de procedimientos tarifarios,Text